project/ouput_systolic.vcd
$date
	Fri May 15 10:22:16 2026
$end
$version
	GTKWave Analyzer v3.3.100 (w)1999-2019 BSI
$end
$timescale
	1ps
$end
$scope module execute_top_tb $end
$scope module dut $end
$scope module sys $end
$var wire 1 ) clk $end
$var wire 1 - rst $end
$var wire 32 % acc_next_check[31:0] $end
$var wire 32 ' b_check[31:0] $end
$var wire 32 # a_in_check[31:0] $end
$var wire 1 * done $end
$var wire 32 & accumulator_check[31:0] $end
$var wire 32 " a_check[31:0] $end
$var wire 32 + i $end
$var wire 32 , j $end
$var wire 32 $ a_pad_check[31:0] $end
$var wire 4 ( c[3:0] $end
$upscope $end
$upscope $end
$upscope $end
$enddefinitions $end
$dumpvars
#0
bx &
b1000 ,
b0xxxxxxxx '
0)
1-
b100 #
b0xxxxxxxx "
b1000 +
bx (
bx %
b0xxxxxxxx $
x*
#5000
0*
b0 "
b0 '
b0 &
1)
b111 (
b0 %
#10000
0)
#15000
1)
b11 $
#20000
0)
#25000
1)
#30000
0)
#35000
1)
#40000
0)
#45000
1)
#50000
0)
#55000
1)
#60000
0)
#65000
1)
#70000
0)
#75000
1)
#80000
0)
#85000
1)
#90000
0)
#95000
1)
#100000
0)
#105000
1)
#110000
0)
#115000
1)
#120000
0)
#125000
1)
#130000
0)
#135000
1)
#140000
0)
#145000
1)
#150000
0)
#155000
1)
#160000
0)
#165000
1)
#170000
0)
#175000
1)
#180000
0)
#185000
1)
#190000
0)
#195000
1)
#200000
0)
0-
#205000
1)
b0 (
#210000
0)
#215000
1)
b100 "
b110000 &
b1100 '
b1 (
b110000 %
b10 $
#220000
0)
#225000
1)
b1 $
b1001000 &
b11 "
b1001000 %
b1000 '
b10 (
#230000
0)
#235000
1)
b11 (
b1010000 &
b0 $
b100 '
b10 "
b1010000 %
#240000
0)
#245000
1)
b100 (
b1 "
b0 '
#250000
0)
#255000
1)
b0 "
b101 (
#260000
0)
#265000
1)
b110 (
#270000
0)
#275000
1)
1*
b111 (
#280000
0)
#285000
1)
b0 (
b0 %
b0 &
0*
b11 $
#290000
0)
#295000
1)
b10 $
b1100 '
b110000 %
b1 (
b110000 &
b100 "
#300000
0)
#305000
1)
b11 "
b1001000 %
b1000 '
b1 $
b1001000 &
b10 (
#310000
0)
#315000
1)
b11 (
b100 '
b1010000 %
b10 "
b1010000 &
b0 $
#320000
0)
#325000
1)
b0 '
b100 (
b1 "
#330000
0)
#335000
1)
b0 "
b101 (
#340000
0)
#345000
1)
b110 (
#350000
0)
#355000
1)
b111 (
1*
#360000
0)
#365000
1)
0*
b0 %
b11 $
b0 (
b0 &
#370000
0)
#375000
1)
b110000 &
b110000 %
b1100 '
b1 (
b100 "
b10 $
#380000
0)
#385000
1)
b1 $
b1001000 %
b1001000 &
b11 "
b1000 '
b10 (
#390000
0)
#395000
1)
b11 (
b1010000 %
b0 $
b100 '
b1010000 &
b10 "
#400000
0)
#405000
1)
b1 "
b100 (
b0 '
#410000
0)
#415000
1)
b0 "
b101 (
#420000
0)
#425000
1)
b110 (
#430000
0)
#435000
1)
b111 (
1*
#440000
0)
#445000
1)
0*
b0 %
b0 (
b11 $
b0 &
#450000
0)
#455000
1)
b110000 &
b110000 %
b1100 '
b10 $
b100 "
b1 (
#460000
0)
#465000
1)
b10 (
b1001000 %
b1001000 &
b11 "
b1000 '
b1 $
#470000
0)
#475000
1)
b0 $
b1010000 %
b11 (
b100 '
b1010000 &
b10 "
#480000
0)
#485000
1)
b1 "
b100 (
b0 '
#490000
0)
#495000
1)
b101 (
b0 "
#500000
0)
#505000
1)
b110 (
#510000
0)
#515000
1)
1*
b111 (
#520000
0)
#525000
1)
b0 (
b0 %
b11 $
0*
b0 &
#530000
0)
#535000
1)
b110000 &
b110000 %
b1 (
b1100 '
b10 $
b100 "
#540000
0)
#545000
1)
b11 "
b10 (
b1001000 %
b1001000 &
b1 $
b1000 '
#550000
0)
#555000
1)
b100 '
b1010000 %
b11 (
b10 "
b0 $
b1010000 &
#560000
0)
#565000
1)
b100 (
b0 '
b1 "
#570000
0)
#575000
1)
b0 "
b101 (
#580000
0)
#585000
1)
b110 (
#590000
0)
#595000
1)
b111 (
1*
#600000
0)
#605000
1)
0*
b0 &
b0 %
b0 (
b11 $
#610000
0)
#615000
1)
b10 $
b110000 &
b100 "
b1 (
b1100 '
b110000 %
#620000
0)
#625000
1)
b1001000 %
b1001000 &
b1 $
b1000 '
b11 "
b10 (
#630000
0)
#635000
1)
b11 (
b1010000 &
b1010000 %
b10 "
b0 $
b100 '
#640000
0)
#645000
1)
b0 '
b100 (
b1 "
#650000
0)
#655000
1)
b0 "
b101 (
#660000
0)
#665000
1)
b110 (
#670000
0)
#675000
1)
b111 (
1*
#680000
0)
#685000
1)
0*
b0 &
b0 (
b0 %
b11 $
#690000
0)
#695000
1)
b10 $
b110000 &
b1100 '
b110000 %
b100 "
b1 (
#700000
0)
#705000
1)
b10 (
b1001000 &
b1 $
b11 "
b1000 '
b1001000 %
#710000
0)
#715000
1)
b1010000 %
b1010000 &
b11 (
b100 '
b0 $
b10 "
#720000
0)
#725000
1)
b1 "
b100 (
b0 '
#730000
0)
#735000
1)
b101 (
b0 "
#740000
0)
#745000
1)
b110 (
#750000
0)
#755000
1)
1*
b111 (
#760000
0)
#765000
1)
b0 (
b0 &
b0 %
0*
b11 $
#770000
0)
#775000
1)
b10 $
b110000 &
b1 (
b1100 '
b110000 %
b100 "
#780000
0)
#785000
1)
b11 "
b10 (
b1001000 &
b1 $
b1001000 %
b1000 '
#790000
0)
#795000
1)
b100 '
b1010000 &
b11 (
b10 "
b1010000 %
b0 $
#800000
0)
#805000
1)
b100 (
b0 '
b1 "
#810000
0)
#815000
1)
b0 "
b101 (
#820000
0)
#825000
1)
b110 (
#830000
0)
#835000
1)
b111 (
1*
#840000
0)
#845000
1)
0*
b11 $
b0 &
b0 (
b0 %
#850000
0)
#855000
1)
b110000 %
b10 $
b100 "
b1 (
b1100 '
b110000 &
#860000
0)
#865000
1)
b1001000 &
b1 $
b1001000 %
b1000 '
b11 "
b10 (
#870000
0)
#875000
1)
b11 (
b0 $
b1010000 &
b10 "
b1010000 %
b100 '
#880000
0)
#885000
1)
b0 '
b100 (
b1 "
#890000
0)
#895000
1)
b0 "
b101 (
#900000
0)
#905000
1)
b110 (
#910000
0)
#915000
1)
b111 (
1*
#920000
0)
#925000
1)
0*
b11 $
b0 (
b0 &
b0 %
#930000
0)
#935000
1)
b110000 %
b10 $
b1100 '
b110000 &
b100 "
b1 (
#940000
0)
#945000
1)
b10 (
b1 $
b1001000 %
b11 "
b1000 '
b1001000 &
#950000
0)
#955000
1)
b1010000 &
b0 $
b11 (
b100 '
b1010000 %
b10 "
#960000
0)
#965000
1)
b1 "
b100 (
b0 '
#970000
0)
#975000
1)
b101 (
b0 "
#980000
0)
#985000
1)
b110 (
#990000
0)
#995000
1)
1*
b111 (
#1000000
0)
#1005000
1)
b0 (
b11 $
b0 &
0*
b0 %
#1010000
0)
#1015000
1)
b110000 %
b10 $
b1 (
b1100 '
b110000 &
b100 "
#1020000
0)
#1025000
1)
b11 "
b10 (
b1 $
b1001000 %
b1001000 &
b1000 '
#1030000
0)
#1035000
1)
b100 '
b0 $
b11 (
b10 "
b1010000 &
b1010000 %
#1040000
0)
#1045000
1)
b100 (
b0 '
b1 "
#1050000
0)
#1055000
1)
b0 "
b101 (
#1060000
0)
#1065000
1)
b110 (
#1070000
0)
#1075000
1)
b111 (
1*
#1080000
0)
#1085000
1)
0*
b0 %
b11 $
b0 (
b0 &
#1090000
0)
#1095000
1)
b110000 &
b110000 %
b100 "
b1 (
b1100 '
b10 $
#1100000
0)
#1105000
1)
b1 $
b1001000 %
b1001000 &
b1000 '
b11 "
b10 (
#1110000
0)
#1115000
1)
b11 (
b1010000 %
b0 $
b10 "
b1010000 &
b100 '
#1120000
0)
#1125000
1)
b0 '
b100 (
b1 "
#1130000
0)
#1135000
1)
b0 "
b101 (
#1140000
0)
#1145000
1)
b110 (
#1150000
0)
#1155000
1)
b111 (
1*
#1160000
0)
#1165000
1)
0*
b0 %
b0 (
b11 $
b0 &
#1170000
0)
#1175000
1)
b110000 &
b110000 %
b1100 '
b10 $
b100 "
b1 (
#1180000
0)
#1185000
1)
b10 (
b1001000 %
b1001000 &
b11 "
b1000 '
b1 $
#1190000
0)
#1195000
1)
b0 $
b1010000 %
b11 (
b100 '
b1010000 &
b10 "
